20 10
####################
#................<.#
#..................#
#...###............#
#.....#............#
#.....#............#
#...###............#
#..................#
#..................#
####################
@uhv 3 5 Mcm 17 5
